{"attributes":{"fieldFormatMap":"{\"sf_uploadEvent\":{\"id\":\"string\",\"params\":{\"parsedUrl\":{\"origin\":\"http://10.0.2.18:5601\",\"pathname\":\"/app/management/data/index_management/indices\",\"basePath\":\"\"}}},\"sf_pages\":{\"id\":\"string\",\"params\":{\"parsedUrl\":{\"origin\":\"http://10.0.2.18:5601\",\"pathname\":\"/app/management/data/index_management/indices\",\"basePath\":\"\"}}},\"module-audit\":{\"id\":\"string\",\"params\":{\"parsedUrl\":{\"origin\":\"http://10.0.2.18:5601\",\"pathname\":\"/app/home\",\"basePath\":\"\"},\"transform\":\"false\"}},\"user-audit\":{\"id\":\"string\",\"params\":{\"parsedUrl\":{\"origin\":\"http://10.0.2.18:5601\",\"pathname\":\"/app/management/kibana/indexPatterns/patterns/0fcae6d0-13eb-11eb-b944-adbba8968291/field/module-audit\",\"basePath\":\"\"}}},\"mdc_hour\":{\"id\":\"string\",\"params\":{\"parsedUrl\":{\"origin\":\"https://10.0.2.18:3000\",\"pathname\":\"/logs/app/management/data/index_management/indices\",\"basePath\":\"/logs\"}}}}","fields":"[{\"name\":\"@timestamp\",\"type\":\"date\",\"esTypes\":[\"date\"],\"count\":0,\"scripted\":false,\"searchable\":true,\"aggregatable\":true,\"readFromDocValues\":true},{\"name\":\"@version\",\"type\":\"string\",\"esTypes\":[\"text\"],\"count\":0,\"scripted\":false,\"searchable\":true,\"aggregatable\":false,\"readFromDocValues\":false},{\"name\":\"@version.keyword\",\"type\":\"string\",\"esTypes\":[\"keyword\"],\"count\":0,\"scripted\":false,\"searchable\":true,\"aggregatable\":true,\"readFromDocValues\":true,\"subType\":{\"multi\":{\"parent\":\"@version\"}}},{\"name\":\"_id\",\"type\":\"string\",\"esTypes\":[\"_id\"],\"count\":0,\"scripted\":false,\"searchable\":true,\"aggregatable\":true,\"readFromDocValues\":false},{\"name\":\"_index\",\"type\":\"string\",\"esTypes\":[\"_index\"],\"count\":0,\"scripted\":false,\"searchable\":true,\"aggregatable\":true,\"readFromDocValues\":false},{\"name\":\"_score\",\"type\":\"number\",\"count\":0,\"scripted\":false,\"searchable\":false,\"aggregatable\":false,\"readFromDocValues\":false},{\"name\":\"_source\",\"type\":\"_source\",\"esTypes\":[\"_source\"],\"count\":0,\"scripted\":false,\"searchable\":false,\"aggregatable\":false,\"readFromDocValues\":false},{\"name\":\"_type\",\"type\":\"string\",\"esTypes\":[\"_type\"],\"count\":0,\"scripted\":false,\"searchable\":true,\"aggregatable\":true,\"readFromDocValues\":false},{\"name\":\"application\",\"type\":\"string\",\"esTypes\":[\"text\"],\"count\":0,\"scripted\":false,\"searchable\":true,\"aggregatable\":false,\"readFromDocValues\":false},{\"name\":\"application.keyword\",\"type\":\"string\",\"esTypes\":[\"keyword\"],\"count\":0,\"scripted\":false,\"searchable\":true,\"aggregatable\":true,\"readFromDocValues\":true,\"subType\":{\"multi\":{\"parent\":\"application\"}}},{\"name\":\"audit.action\",\"type\":\"string\",\"esTypes\":[\"text\"],\"count\":0,\"scripted\":false,\"searchable\":true,\"aggregatable\":false,\"readFromDocValues\":false},{\"name\":\"audit.action.keyword\",\"type\":\"string\",\"esTypes\":[\"keyword\"],\"count\":0,\"scripted\":false,\"searchable\":true,\"aggregatable\":true,\"readFromDocValues\":true,\"subType\":{\"multi\":{\"parent\":\"audit.action\"}}},{\"name\":\"audit.available_rows\",\"type\":\"string\",\"esTypes\":[\"text\"],\"count\":0,\"scripted\":false,\"searchable\":true,\"aggregatable\":false,\"readFromDocValues\":false},{\"name\":\"audit.available_rows.keyword\",\"type\":\"string\",\"esTypes\":[\"keyword\"],\"count\":0,\"scripted\":false,\"searchable\":true,\"aggregatable\":true,\"readFromDocValues\":true,\"subType\":{\"multi\":{\"parent\":\"audit.available_rows\"}}},{\"name\":\"audit.compare\",\"type\":\"boolean\",\"esTypes\":[\"boolean\"],\"count\":0,\"scripted\":false,\"searchable\":true,\"aggregatable\":true,\"readFromDocValues\":true},{\"name\":\"audit.compare_logical_file_name\",\"type\":\"string\",\"esTypes\":[\"text\"],\"count\":0,\"scripted\":false,\"searchable\":true,\"aggregatable\":false,\"readFromDocValues\":false},{\"name\":\"audit.compare_logical_file_name.keyword\",\"type\":\"string\",\"esTypes\":[\"keyword\"],\"count\":0,\"scripted\":false,\"searchable\":true,\"aggregatable\":true,\"readFromDocValues\":true,\"subType\":{\"multi\":{\"parent\":\"audit.compare_logical_file_name\"}}},{\"name\":\"audit.compare_redis_token\",\"type\":\"string\",\"esTypes\":[\"text\"],\"count\":0,\"scripted\":false,\"searchable\":true,\"aggregatable\":false,\"readFromDocValues\":false},{\"name\":\"audit.compare_redis_token.keyword\",\"type\":\"string\",\"esTypes\":[\"keyword\"],\"count\":0,\"scripted\":false,\"searchable\":true,\"aggregatable\":true,\"readFromDocValues\":true,\"subType\":{\"multi\":{\"parent\":\"audit.compare_redis_token\"}}},{\"name\":\"audit.description\",\"type\":\"string\",\"esTypes\":[\"text\"],\"count\":0,\"scripted\":false,\"searchable\":true,\"aggregatable\":false,\"readFromDocValues\":false},{\"name\":\"audit.description.keyword\",\"type\":\"string\",\"esTypes\":[\"keyword\"],\"count\":0,\"scripted\":false,\"searchable\":true,\"aggregatable\":true,\"readFromDocValues\":true,\"subType\":{\"multi\":{\"parent\":\"audit.description\"}}},{\"name\":\"audit.env\",\"type\":\"string\",\"esTypes\":[\"text\"],\"count\":0,\"scripted\":false,\"searchable\":true,\"aggregatable\":false,\"readFromDocValues\":false},{\"name\":\"audit.env.keyword\",\"type\":\"string\",\"esTypes\":[\"keyword\"],\"count\":0,\"scripted\":false,\"searchable\":true,\"aggregatable\":true,\"readFromDocValues\":true,\"subType\":{\"multi\":{\"parent\":\"audit.env\"}}},{\"name\":\"audit.error\",\"type\":\"string\",\"esTypes\":[\"text\"],\"count\":0,\"scripted\":false,\"searchable\":true,\"aggregatable\":false,\"readFromDocValues\":false},{\"name\":\"audit.error.keyword\",\"type\":\"string\",\"esTypes\":[\"keyword\"],\"count\":0,\"scripted\":false,\"searchable\":true,\"aggregatable\":true,\"readFromDocValues\":true,\"subType\":{\"multi\":{\"parent\":\"audit.error\"}}},{\"name\":\"audit.fileId\",\"type\":\"string\",\"esTypes\":[\"text\"],\"count\":0,\"scripted\":false,\"searchable\":true,\"aggregatable\":false,\"readFromDocValues\":false},{\"name\":\"audit.fileId.keyword\",\"type\":\"string\",\"esTypes\":[\"keyword\"],\"count\":0,\"scripted\":false,\"searchable\":true,\"aggregatable\":true,\"readFromDocValues\":true,\"subType\":{\"multi\":{\"parent\":\"audit.fileId\"}}},{\"name\":\"audit.file_name\",\"type\":\"string\",\"esTypes\":[\"text\"],\"count\":0,\"scripted\":false,\"searchable\":true,\"aggregatable\":false,\"readFromDocValues\":false},{\"name\":\"audit.file_name.keyword\",\"type\":\"string\",\"esTypes\":[\"keyword\"],\"count\":0,\"scripted\":false,\"searchable\":true,\"aggregatable\":true,\"readFromDocValues\":true,\"subType\":{\"multi\":{\"parent\":\"audit.file_name\"}}},{\"name\":\"audit.id\",\"type\":\"string\",\"esTypes\":[\"text\"],\"count\":0,\"scripted\":false,\"searchable\":true,\"aggregatable\":false,\"readFromDocValues\":false},{\"name\":\"audit.id.keyword\",\"type\":\"string\",\"esTypes\":[\"keyword\"],\"count\":0,\"scripted\":false,\"searchable\":true,\"aggregatable\":true,\"readFromDocValues\":true,\"subType\":{\"multi\":{\"parent\":\"audit.id\"}}},{\"name\":\"audit.k_anonymity\",\"type\":\"number\",\"esTypes\":[\"long\"],\"count\":0,\"scripted\":false,\"searchable\":true,\"aggregatable\":true,\"readFromDocValues\":true},{\"name\":\"audit.logical_file_name\",\"type\":\"string\",\"esTypes\":[\"text\"],\"count\":0,\"scripted\":false,\"searchable\":true,\"aggregatable\":false,\"readFromDocValues\":false},{\"name\":\"audit.logical_file_name.keyword\",\"type\":\"string\",\"esTypes\":[\"keyword\"],\"count\":0,\"scripted\":false,\"searchable\":true,\"aggregatable\":true,\"readFromDocValues\":true,\"subType\":{\"multi\":{\"parent\":\"audit.logical_file_name\"}}},{\"name\":\"audit.main_dir\",\"type\":\"string\",\"esTypes\":[\"text\"],\"count\":0,\"scripted\":false,\"searchable\":true,\"aggregatable\":false,\"readFromDocValues\":false},{\"name\":\"audit.main_dir.keyword\",\"type\":\"string\",\"esTypes\":[\"keyword\"],\"count\":0,\"scripted\":false,\"searchable\":true,\"aggregatable\":true,\"readFromDocValues\":true,\"subType\":{\"multi\":{\"parent\":\"audit.main_dir\"}}},{\"name\":\"audit.message\",\"type\":\"string\",\"esTypes\":[\"text\"],\"count\":0,\"scripted\":false,\"searchable\":true,\"aggregatable\":false,\"readFromDocValues\":false},{\"name\":\"audit.message.keyword\",\"type\":\"string\",\"esTypes\":[\"keyword\"],\"count\":0,\"scripted\":false,\"searchable\":true,\"aggregatable\":true,\"readFromDocValues\":true,\"subType\":{\"multi\":{\"parent\":\"audit.message\"}}},{\"name\":\"audit.name\",\"type\":\"string\",\"esTypes\":[\"text\"],\"count\":0,\"scripted\":false,\"searchable\":true,\"aggregatable\":false,\"readFromDocValues\":false},{\"name\":\"audit.name.keyword\",\"type\":\"string\",\"esTypes\":[\"keyword\"],\"count\":0,\"scripted\":false,\"searchable\":true,\"aggregatable\":true,\"readFromDocValues\":true,\"subType\":{\"multi\":{\"parent\":\"audit.name\"}}},{\"name\":\"audit.name_space\",\"type\":\"string\",\"esTypes\":[\"text\"],\"count\":0,\"scripted\":false,\"searchable\":true,\"aggregatable\":false,\"readFromDocValues\":false},{\"name\":\"audit.name_space.keyword\",\"type\":\"string\",\"esTypes\":[\"keyword\"],\"count\":0,\"scripted\":false,\"searchable\":true,\"aggregatable\":true,\"readFromDocValues\":true,\"subType\":{\"multi\":{\"parent\":\"audit.name_space\"}}},{\"name\":\"audit.newValue\",\"type\":\"string\",\"esTypes\":[\"text\"],\"count\":0,\"scripted\":false,\"searchable\":true,\"aggregatable\":false,\"readFromDocValues\":false},{\"name\":\"audit.newValue.keyword\",\"type\":\"string\",\"esTypes\":[\"keyword\"],\"count\":0,\"scripted\":false,\"searchable\":true,\"aggregatable\":true,\"readFromDocValues\":true,\"subType\":{\"multi\":{\"parent\":\"audit.newValue\"}}},{\"name\":\"audit.oldValue\",\"type\":\"string\",\"esTypes\":[\"text\"],\"count\":0,\"scripted\":false,\"searchable\":true,\"aggregatable\":false,\"readFromDocValues\":false},{\"name\":\"audit.oldValue.keyword\",\"type\":\"string\",\"esTypes\":[\"keyword\"],\"count\":0,\"scripted\":false,\"searchable\":true,\"aggregatable\":true,\"readFromDocValues\":true,\"subType\":{\"multi\":{\"parent\":\"audit.oldValue\"}}},{\"name\":\"audit.output_file_name\",\"type\":\"string\",\"esTypes\":[\"text\"],\"count\":0,\"scripted\":false,\"searchable\":true,\"aggregatable\":false,\"readFromDocValues\":false},{\"name\":\"audit.output_file_name.keyword\",\"type\":\"string\",\"esTypes\":[\"keyword\"],\"count\":0,\"scripted\":false,\"searchable\":true,\"aggregatable\":true,\"readFromDocValues\":true,\"subType\":{\"multi\":{\"parent\":\"audit.output_file_name\"}}},{\"name\":\"audit.queryId\",\"type\":\"string\",\"esTypes\":[\"text\"],\"count\":0,\"scripted\":false,\"searchable\":true,\"aggregatable\":false,\"readFromDocValues\":false},{\"name\":\"audit.queryId.keyword\",\"type\":\"string\",\"esTypes\":[\"keyword\"],\"count\":0,\"scripted\":false,\"searchable\":true,\"aggregatable\":true,\"readFromDocValues\":true,\"subType\":{\"multi\":{\"parent\":\"audit.queryId\"}}},{\"name\":\"audit.queryName\",\"type\":\"string\",\"esTypes\":[\"text\"],\"count\":0,\"scripted\":false,\"searchable\":true,\"aggregatable\":false,\"readFromDocValues\":false},{\"name\":\"audit.queryName.keyword\",\"type\":\"string\",\"esTypes\":[\"keyword\"],\"count\":0,\"scripted\":false,\"searchable\":true,\"aggregatable\":true,\"readFromDocValues\":true,\"subType\":{\"multi\":{\"parent\":\"audit.queryName\"}}},{\"name\":\"audit.redis_token\",\"type\":\"string\",\"esTypes\":[\"text\"],\"count\":0,\"scripted\":false,\"searchable\":true,\"aggregatable\":false,\"readFromDocValues\":false},{\"name\":\"audit.redis_token.keyword\",\"type\":\"string\",\"esTypes\":[\"keyword\"],\"count\":0,\"scripted\":false,\"searchable\":true,\"aggregatable\":true,\"readFromDocValues\":true,\"subType\":{\"multi\":{\"parent\":\"audit.redis_token\"}}},{\"name\":\"audit.session_id\",\"type\":\"string\",\"esTypes\":[\"text\"],\"count\":0,\"scripted\":false,\"searchable\":true,\"aggregatable\":false,\"readFromDocValues\":false},{\"name\":\"audit.session_id.keyword\",\"type\":\"string\",\"esTypes\":[\"keyword\"],\"count\":0,\"scripted\":false,\"searchable\":true,\"aggregatable\":true,\"readFromDocValues\":true,\"subType\":{\"multi\":{\"parent\":\"audit.session_id\"}}},{\"name\":\"audit.socket_key\",\"type\":\"string\",\"esTypes\":[\"text\"],\"count\":0,\"scripted\":false,\"searchable\":true,\"aggregatable\":false,\"readFromDocValues\":false},{\"name\":\"audit.socket_key.keyword\",\"type\":\"string\",\"esTypes\":[\"keyword\"],\"count\":0,\"scripted\":false,\"searchable\":true,\"aggregatable\":true,\"readFromDocValues\":true,\"subType\":{\"multi\":{\"parent\":\"audit.socket_key\"}}},{\"name\":\"audit.statusCode\",\"type\":\"number\",\"esTypes\":[\"long\"],\"count\":0,\"scripted\":false,\"searchable\":true,\"aggregatable\":true,\"readFromDocValues\":true},{\"name\":\"audit.user_id\",\"type\":\"number\",\"esTypes\":[\"long\"],\"count\":0,\"scripted\":false,\"searchable\":true,\"aggregatable\":true,\"readFromDocValues\":true},{\"name\":\"audit.username\",\"type\":\"string\",\"esTypes\":[\"text\"],\"count\":0,\"scripted\":false,\"searchable\":true,\"aggregatable\":false,\"readFromDocValues\":false},{\"name\":\"audit.username.keyword\",\"type\":\"string\",\"esTypes\":[\"keyword\"],\"count\":0,\"scripted\":false,\"searchable\":true,\"aggregatable\":true,\"readFromDocValues\":true,\"subType\":{\"multi\":{\"parent\":\"audit.username\"}}},{\"name\":\"host\",\"type\":\"string\",\"esTypes\":[\"text\"],\"count\":0,\"scripted\":false,\"searchable\":true,\"aggregatable\":false,\"readFromDocValues\":false},{\"name\":\"host.keyword\",\"type\":\"string\",\"esTypes\":[\"keyword\"],\"count\":0,\"scripted\":false,\"searchable\":true,\"aggregatable\":true,\"readFromDocValues\":true,\"subType\":{\"multi\":{\"parent\":\"host\"}}},{\"name\":\"indexapp\",\"type\":\"string\",\"esTypes\":[\"text\"],\"count\":0,\"scripted\":false,\"searchable\":true,\"aggregatable\":false,\"readFromDocValues\":false},{\"name\":\"indexapp.keyword\",\"type\":\"string\",\"esTypes\":[\"keyword\"],\"count\":0,\"scripted\":false,\"searchable\":true,\"aggregatable\":true,\"readFromDocValues\":true,\"subType\":{\"multi\":{\"parent\":\"indexapp\"}}},{\"name\":\"log_level\",\"type\":\"string\",\"esTypes\":[\"text\"],\"count\":0,\"scripted\":false,\"searchable\":true,\"aggregatable\":false,\"readFromDocValues\":false},{\"name\":\"log_level.keyword\",\"type\":\"string\",\"esTypes\":[\"keyword\"],\"count\":0,\"scripted\":false,\"searchable\":true,\"aggregatable\":true,\"readFromDocValues\":true,\"subType\":{\"multi\":{\"parent\":\"log_level\"}}},{\"name\":\"mdc_dayOfWeek\",\"type\":\"string\",\"esTypes\":[\"text\"],\"count\":0,\"scripted\":false,\"searchable\":true,\"aggregatable\":false,\"readFromDocValues\":false},{\"name\":\"mdc_dayOfWeek.keyword\",\"type\":\"string\",\"esTypes\":[\"keyword\"],\"count\":0,\"scripted\":false,\"searchable\":true,\"aggregatable\":true,\"readFromDocValues\":true,\"subType\":{\"multi\":{\"parent\":\"mdc_dayOfWeek\"}}},{\"name\":\"mdc_hour\",\"type\":\"string\",\"esTypes\":[\"text\"],\"count\":0,\"scripted\":false,\"searchable\":true,\"aggregatable\":false,\"readFromDocValues\":false},{\"name\":\"mdc_hour.keyword\",\"type\":\"string\",\"esTypes\":[\"keyword\"],\"count\":0,\"scripted\":false,\"searchable\":true,\"aggregatable\":true,\"readFromDocValues\":true,\"subType\":{\"multi\":{\"parent\":\"mdc_hour\"}}},{\"name\":\"mdc_log_msg\",\"type\":\"string\",\"esTypes\":[\"text\"],\"count\":0,\"scripted\":false,\"searchable\":true,\"aggregatable\":false,\"readFromDocValues\":false},{\"name\":\"mdc_log_msg.keyword\",\"type\":\"string\",\"esTypes\":[\"keyword\"],\"count\":0,\"scripted\":false,\"searchable\":true,\"aggregatable\":true,\"readFromDocValues\":true,\"subType\":{\"multi\":{\"parent\":\"mdc_log_msg\"}}},{\"name\":\"mdc_timestamp\",\"type\":\"date\",\"esTypes\":[\"date\"],\"count\":0,\"scripted\":false,\"searchable\":true,\"aggregatable\":true,\"readFromDocValues\":true},{\"name\":\"message\",\"type\":\"string\",\"esTypes\":[\"text\"],\"count\":0,\"scripted\":false,\"searchable\":true,\"aggregatable\":false,\"readFromDocValues\":false},{\"name\":\"message.keyword\",\"type\":\"string\",\"esTypes\":[\"keyword\"],\"count\":0,\"scripted\":false,\"searchable\":true,\"aggregatable\":true,\"readFromDocValues\":true,\"subType\":{\"multi\":{\"parent\":\"message\"}}},{\"name\":\"module\",\"type\":\"string\",\"esTypes\":[\"text\"],\"count\":0,\"scripted\":false,\"searchable\":true,\"aggregatable\":false,\"readFromDocValues\":false},{\"name\":\"module.keyword\",\"type\":\"string\",\"esTypes\":[\"keyword\"],\"count\":0,\"scripted\":false,\"searchable\":true,\"aggregatable\":true,\"readFromDocValues\":true,\"subType\":{\"multi\":{\"parent\":\"module\"}}},{\"name\":\"path\",\"type\":\"string\",\"esTypes\":[\"text\"],\"count\":0,\"scripted\":false,\"searchable\":true,\"aggregatable\":false,\"readFromDocValues\":false},{\"name\":\"path.keyword\",\"type\":\"string\",\"esTypes\":[\"keyword\"],\"count\":0,\"scripted\":false,\"searchable\":true,\"aggregatable\":true,\"readFromDocValues\":true,\"subType\":{\"multi\":{\"parent\":\"path\"}}},{\"name\":\"tags\",\"type\":\"string\",\"esTypes\":[\"text\"],\"count\":0,\"scripted\":false,\"searchable\":true,\"aggregatable\":false,\"readFromDocValues\":false},{\"name\":\"tags.keyword\",\"type\":\"string\",\"esTypes\":[\"keyword\"],\"count\":0,\"scripted\":false,\"searchable\":true,\"aggregatable\":true,\"readFromDocValues\":true,\"subType\":{\"multi\":{\"parent\":\"tags\"}}},{\"name\":\"user\",\"type\":\"string\",\"esTypes\":[\"text\"],\"count\":0,\"scripted\":false,\"searchable\":true,\"aggregatable\":false,\"readFromDocValues\":false},{\"name\":\"user.keyword\",\"type\":\"string\",\"esTypes\":[\"keyword\"],\"count\":0,\"scripted\":false,\"searchable\":true,\"aggregatable\":true,\"readFromDocValues\":true,\"subType\":{\"multi\":{\"parent\":\"user\"}}}]","timeFieldName":"mdc_timestamp","title":"mdclone-*"},"id":"0fcae6d0-13eb-11eb-b944-adbba8968291","migrationVersion":{"index-pattern":"7.6.0"},"references":[],"type":"index-pattern","updated_at":"2021-07-21T04:54:12.681Z","version":"WzQ3NTM5LDVd"}
{"attributes":{"description":"","kibanaSavedObjectMeta":{"searchSourceJSON":"{\"query\":{\"query\":\"\",\"language\":\"kuery\"},\"filter\":[{\"$state\":{\"store\":\"appState\"},\"meta\":{\"alias\":null,\"disabled\":false,\"key\":\"module.keyword\",\"negate\":true,\"params\":[\"app\",\"c.l.m.s.datalakequeries.hive2adapter\",\"c.l.m.security.winauth.gatewayauthfilter\",\"c.l.mdclone.security.userdetailsservice\",\"nulls_rate\",\"null\",\"file source\",\"f_publish\",\"ssh client\",\"getcolmetadata\",\"config\"],\"type\":\"phrases\",\"value\":\"app, c.l.m.s.datalakequeries.hive2adapter, c.l.m.security.winauth.gatewayauthfilter, c.l.mdclone.security.userdetailsservice, nulls_rate, null, file source, f_publish, ssh client, getcolmetadata, config\",\"indexRefName\":\"kibanaSavedObjectMeta.searchSourceJSON.filter[0].meta.index\"},\"query\":{\"bool\":{\"minimum_should_match\":1,\"should\":[{\"match_phrase\":{\"module.keyword\":\"app\"}},{\"match_phrase\":{\"module.keyword\":\"c.l.m.s.datalakequeries.hive2adapter\"}},{\"match_phrase\":{\"module.keyword\":\"c.l.m.security.winauth.gatewayauthfilter\"}},{\"match_phrase\":{\"module.keyword\":\"c.l.mdclone.security.userdetailsservice\"}},{\"match_phrase\":{\"module.keyword\":\"nulls_rate\"}},{\"match_phrase\":{\"module.keyword\":\"null\"}},{\"match_phrase\":{\"module.keyword\":\"file source\"}},{\"match_phrase\":{\"module.keyword\":\"f_publish\"}},{\"match_phrase\":{\"module.keyword\":\"ssh client\"}},{\"match_phrase\":{\"module.keyword\":\"getcolmetadata\"}},{\"match_phrase\":{\"module.keyword\":\"config\"}}]}}},{\"$state\":{\"store\":\"appState\"},\"exists\":{\"field\":\"audit.action.keyword\"},\"meta\":{\"alias\":null,\"disabled\":false,\"key\":\"audit.action.keyword\",\"negate\":false,\"type\":\"exists\",\"value\":\"exists\",\"indexRefName\":\"kibanaSavedObjectMeta.searchSourceJSON.filter[1].meta.index\"}},{\"$state\":{\"store\":\"appState\"},\"meta\":{\"alias\":null,\"disabled\":false,\"key\":\"query\",\"negate\":true,\"type\":\"custom\",\"value\":\"{\\\"bool\\\":{\\\"minimum_should_match\\\":1,\\\"should\\\":[{\\\"match_phrase\\\":{\\\"audit.action.keyword\\\":\\\"Page Entry\\\"}},{\\\"match_phrase\\\":{\\\"audit.action.keyword\\\":\\\"Page entry\\\"}}]}}\",\"indexRefName\":\"kibanaSavedObjectMeta.searchSourceJSON.filter[2].meta.index\"},\"query\":{\"bool\":{\"minimum_should_match\":1,\"should\":[{\"match_phrase\":{\"audit.action.keyword\":\"Page Entry\"}},{\"match_phrase\":{\"audit.action.keyword\":\"Page entry\"}}]}}}],\"indexRefName\":\"kibanaSavedObjectMeta.searchSourceJSON.index\"}"},"title":"Audit - Module Usage Count","uiStateJSON":"{\"vis\":{\"colors\":{\"Count\":\"#705DA0\",\"Count of records\":\"#705DA0\"}}}","version":1,"visState":"{\"title\":\"Audit - Module Usage Count\",\"type\":\"histogram\",\"aggs\":[{\"id\":\"1\",\"enabled\":true,\"type\":\"count\",\"params\":{\"customLabel\":\"\"},\"schema\":\"metric\"},{\"id\":\"2\",\"enabled\":true,\"type\":\"terms\",\"params\":{\"field\":\"module.keyword\",\"orderBy\":\"1\",\"order\":\"desc\",\"size\":2500,\"otherBucket\":false,\"otherBucketLabel\":\"Other\",\"missingBucket\":false,\"missingBucketLabel\":\"Missing\",\"customLabel\":\"Modules\"},\"schema\":\"segment\"}],\"params\":{\"addLegend\":true,\"addTimeMarker\":false,\"addTooltip\":true,\"categoryAxes\":[{\"id\":\"CategoryAxis-1\",\"labels\":{\"filter\":false,\"rotate\":0,\"show\":true,\"truncate\":200},\"position\":\"left\",\"scale\":{\"type\":\"linear\"},\"show\":true,\"style\":{},\"title\":{},\"type\":\"category\"}],\"grid\":{\"categoryLines\":false},\"labels\":{\"show\":true},\"legendPosition\":\"right\",\"seriesParams\":[{\"data\":{\"id\":\"1\",\"label\":\"Count\"},\"drawLinesBetweenPoints\":true,\"lineWidth\":2,\"mode\":\"normal\",\"show\":true,\"showCircles\":true,\"type\":\"histogram\",\"valueAxis\":\"ValueAxis-1\"}],\"thresholdLine\":{\"color\":\"#E7664C\",\"show\":false,\"style\":\"full\",\"value\":10,\"width\":1},\"times\":[],\"type\":\"histogram\",\"valueAxes\":[{\"id\":\"ValueAxis-1\",\"labels\":{\"filter\":true,\"rotate\":75,\"show\":true,\"truncate\":100},\"name\":\"LeftAxis-1\",\"position\":\"bottom\",\"scale\":{\"mode\":\"normal\",\"type\":\"linear\"},\"show\":false,\"style\":{},\"title\":{\"text\":\"Count\"},\"type\":\"value\"}]}}"},"id":"4739a9f0-e49a-11eb-935d-434cc36ade6c","migrationVersion":{"visualization":"7.8.0"},"references":[{"id":"0fcae6d0-13eb-11eb-b944-adbba8968291","name":"kibanaSavedObjectMeta.searchSourceJSON.index","type":"index-pattern"},{"id":"0fcae6d0-13eb-11eb-b944-adbba8968291","name":"kibanaSavedObjectMeta.searchSourceJSON.filter[0].meta.index","type":"index-pattern"},{"id":"0fcae6d0-13eb-11eb-b944-adbba8968291","name":"kibanaSavedObjectMeta.searchSourceJSON.filter[1].meta.index","type":"index-pattern"},{"id":"0fcae6d0-13eb-11eb-b944-adbba8968291","name":"kibanaSavedObjectMeta.searchSourceJSON.filter[2].meta.index","type":"index-pattern"}],"type":"visualization","updated_at":"2021-08-30T13:10:58.007Z","version":"WzU1MjkxLDVd"}
{"attributes":{"description":"","kibanaSavedObjectMeta":{"searchSourceJSON":"{\"query\":{\"query\":\"\",\"language\":\"kuery\"},\"filter\":[{\"$state\":{\"store\":\"appState\"},\"meta\":{\"alias\":null,\"disabled\":false,\"key\":\"query\",\"negate\":true,\"type\":\"custom\",\"value\":\"{\\\"bool\\\":{\\\"minimum_should_match\\\":1,\\\"should\\\":[{\\\"match_phrase\\\":{\\\"audit.action.keyword\\\":\\\"Page Entry\\\"}},{\\\"match_phrase\\\":{\\\"audit.action.keyword\\\":\\\"Page entry\\\"}}]}}\",\"indexRefName\":\"kibanaSavedObjectMeta.searchSourceJSON.filter[0].meta.index\"},\"query\":{\"bool\":{\"minimum_should_match\":1,\"should\":[{\"match_phrase\":{\"audit.action.keyword\":\"Page Entry\"}},{\"match_phrase\":{\"audit.action.keyword\":\"Page entry\"}}]}}},{\"$state\":{\"store\":\"appState\"},\"exists\":{\"field\":\"audit.action.keyword\"},\"meta\":{\"alias\":null,\"disabled\":false,\"key\":\"audit.action.keyword\",\"negate\":false,\"type\":\"exists\",\"value\":\"exists\",\"indexRefName\":\"kibanaSavedObjectMeta.searchSourceJSON.filter[1].meta.index\"}},{\"$state\":{\"store\":\"appState\"},\"meta\":{\"alias\":null,\"disabled\":false,\"key\":\"query\",\"negate\":true,\"type\":\"custom\",\"value\":\"{\\\"bool\\\":{\\\"minimum_should_match\\\":1,\\\"should\\\":[{\\\"match_phrase\\\":{\\\"module.keyword\\\":\\\"app\\\"}},{\\\"match_phrase\\\":{\\\"module.keyword\\\":\\\"c.l.m.s.datalakequeries.hive2adapter\\\"}},{\\\"match_phrase\\\":{\\\"module.keyword\\\":\\\"c.l.m.security.winauth.gatewayauthfilter\\\"}},{\\\"match_phrase\\\":{\\\"module.keyword\\\":\\\"c.l.mdclone.security.userdetailsservice\\\"}},{\\\"match_phrase\\\":{\\\"module.keyword\\\":\\\"nulls_rate\\\"}},{\\\"match_phrase\\\":{\\\"module.keyword\\\":\\\"null\\\"}},{\\\"match_phrase\\\":{\\\"module.keyword\\\":\\\"file source\\\"}},{\\\"match_phrase\\\":{\\\"module.keyword\\\":\\\"f_publish\\\"}},{\\\"match_phrase\\\":{\\\"module.keyword\\\":\\\"ssh client\\\"}},{\\\"match_phrase\\\":{\\\"module.keyword\\\":\\\"getcolmetadata\\\"}},{\\\"match_phrase\\\":{\\\"module.keyword\\\":\\\"config\\\"}}]}}\",\"indexRefName\":\"kibanaSavedObjectMeta.searchSourceJSON.filter[2].meta.index\"},\"query\":{\"bool\":{\"minimum_should_match\":1,\"should\":[{\"match_phrase\":{\"module.keyword\":\"app\"}},{\"match_phrase\":{\"module.keyword\":\"c.l.m.s.datalakequeries.hive2adapter\"}},{\"match_phrase\":{\"module.keyword\":\"c.l.m.security.winauth.gatewayauthfilter\"}},{\"match_phrase\":{\"module.keyword\":\"c.l.mdclone.security.userdetailsservice\"}},{\"match_phrase\":{\"module.keyword\":\"nulls_rate\"}},{\"match_phrase\":{\"module.keyword\":\"null\"}},{\"match_phrase\":{\"module.keyword\":\"file source\"}},{\"match_phrase\":{\"module.keyword\":\"f_publish\"}},{\"match_phrase\":{\"module.keyword\":\"ssh client\"}},{\"match_phrase\":{\"module.keyword\":\"getcolmetadata\"}},{\"match_phrase\":{\"module.keyword\":\"config\"}}]}}}],\"indexRefName\":\"kibanaSavedObjectMeta.searchSourceJSON.index\"}"},"title":"Audit - Action Count","uiStateJSON":"{\"vis\":{\"colors\":{\"Count\":\"#BA43A9\"}}}","version":1,"visState":"{\"title\":\"Audit - Action Count\",\"type\":\"histogram\",\"aggs\":[{\"id\":\"1\",\"enabled\":true,\"type\":\"count\",\"params\":{\"customLabel\":\"Action\"},\"schema\":\"metric\"},{\"id\":\"2\",\"enabled\":true,\"type\":\"terms\",\"params\":{\"field\":\"audit.action.keyword\",\"orderBy\":\"1\",\"order\":\"desc\",\"size\":5000,\"otherBucket\":false,\"otherBucketLabel\":\"Other\",\"missingBucket\":false,\"missingBucketLabel\":\"Missing\",\"customLabel\":\"Action\"},\"schema\":\"segment\"}],\"params\":{\"addLegend\":true,\"addTimeMarker\":false,\"addTooltip\":true,\"categoryAxes\":[{\"id\":\"CategoryAxis-1\",\"labels\":{\"filter\":false,\"rotate\":0,\"show\":true,\"truncate\":200},\"position\":\"left\",\"scale\":{\"type\":\"linear\"},\"show\":true,\"style\":{},\"title\":{},\"type\":\"category\"}],\"grid\":{\"categoryLines\":false},\"labels\":{\"show\":true},\"legendPosition\":\"right\",\"seriesParams\":[{\"data\":{\"id\":\"1\",\"label\":\"Action\"},\"drawLinesBetweenPoints\":true,\"lineWidth\":2,\"mode\":\"normal\",\"show\":true,\"showCircles\":true,\"type\":\"histogram\",\"valueAxis\":\"ValueAxis-1\"}],\"thresholdLine\":{\"color\":\"#E7664C\",\"show\":false,\"style\":\"full\",\"value\":10,\"width\":1},\"times\":[],\"type\":\"histogram\",\"valueAxes\":[{\"id\":\"ValueAxis-1\",\"labels\":{\"filter\":true,\"rotate\":75,\"show\":true,\"truncate\":100},\"name\":\"LeftAxis-1\",\"position\":\"bottom\",\"scale\":{\"mode\":\"normal\",\"type\":\"linear\"},\"show\":false,\"style\":{},\"title\":{\"text\":\"Action\"},\"type\":\"value\"}]}}"},"id":"f8f363a0-e4a1-11eb-935d-434cc36ade6c","migrationVersion":{"visualization":"7.8.0"},"references":[{"id":"0fcae6d0-13eb-11eb-b944-adbba8968291","name":"kibanaSavedObjectMeta.searchSourceJSON.index","type":"index-pattern"},{"id":"0fcae6d0-13eb-11eb-b944-adbba8968291","name":"kibanaSavedObjectMeta.searchSourceJSON.filter[0].meta.index","type":"index-pattern"},{"id":"0fcae6d0-13eb-11eb-b944-adbba8968291","name":"kibanaSavedObjectMeta.searchSourceJSON.filter[1].meta.index","type":"index-pattern"},{"id":"0fcae6d0-13eb-11eb-b944-adbba8968291","name":"kibanaSavedObjectMeta.searchSourceJSON.filter[2].meta.index","type":"index-pattern"}],"type":"visualization","updated_at":"2021-08-30T13:11:05.275Z","version":"WzU1MjkzLDVd"}
{"attributes":{"description":"","kibanaSavedObjectMeta":{"searchSourceJSON":"{\"query\":{\"language\":\"kuery\",\"query\":\"\"},\"filter\":[{\"$state\":{\"store\":\"appState\"},\"exists\":{\"field\":\"audit.action.keyword\"},\"meta\":{\"alias\":null,\"disabled\":false,\"key\":\"audit.action.keyword\",\"negate\":false,\"type\":\"exists\",\"value\":\"exists\",\"indexRefName\":\"kibanaSavedObjectMeta.searchSourceJSON.filter[0].meta.index\"}},{\"$state\":{\"store\":\"appState\"},\"meta\":{\"alias\":null,\"disabled\":false,\"key\":\"query\",\"negate\":true,\"type\":\"custom\",\"value\":\"{\\\"bool\\\":{\\\"minimum_should_match\\\":1,\\\"should\\\":[{\\\"match_phrase\\\":{\\\"module.keyword\\\":\\\"app\\\"}},{\\\"match_phrase\\\":{\\\"module.keyword\\\":\\\"c.l.m.s.datalakequeries.hive2adapter\\\"}},{\\\"match_phrase\\\":{\\\"module.keyword\\\":\\\"c.l.m.security.winauth.gatewayauthfilter\\\"}},{\\\"match_phrase\\\":{\\\"module.keyword\\\":\\\"c.l.mdclone.security.userdetailsservice\\\"}},{\\\"match_phrase\\\":{\\\"module.keyword\\\":\\\"nulls_rate\\\"}},{\\\"match_phrase\\\":{\\\"module.keyword\\\":\\\"null\\\"}},{\\\"match_phrase\\\":{\\\"module.keyword\\\":\\\"file source\\\"}},{\\\"match_phrase\\\":{\\\"module.keyword\\\":\\\"f_publish\\\"}},{\\\"match_phrase\\\":{\\\"module.keyword\\\":\\\"ssh client\\\"}},{\\\"match_phrase\\\":{\\\"module.keyword\\\":\\\"getcolmetadata\\\"}},{\\\"match_phrase\\\":{\\\"module.keyword\\\":\\\"config\\\"}}]}}\",\"indexRefName\":\"kibanaSavedObjectMeta.searchSourceJSON.filter[1].meta.index\"},\"query\":{\"bool\":{\"minimum_should_match\":1,\"should\":[{\"match_phrase\":{\"module.keyword\":\"app\"}},{\"match_phrase\":{\"module.keyword\":\"c.l.m.s.datalakequeries.hive2adapter\"}},{\"match_phrase\":{\"module.keyword\":\"c.l.m.security.winauth.gatewayauthfilter\"}},{\"match_phrase\":{\"module.keyword\":\"c.l.mdclone.security.userdetailsservice\"}},{\"match_phrase\":{\"module.keyword\":\"nulls_rate\"}},{\"match_phrase\":{\"module.keyword\":\"null\"}},{\"match_phrase\":{\"module.keyword\":\"file source\"}},{\"match_phrase\":{\"module.keyword\":\"f_publish\"}},{\"match_phrase\":{\"module.keyword\":\"ssh client\"}},{\"match_phrase\":{\"module.keyword\":\"getcolmetadata\"}},{\"match_phrase\":{\"module.keyword\":\"config\"}}]}}},{\"$state\":{\"store\":\"appState\"},\"meta\":{\"alias\":null,\"disabled\":false,\"key\":\"query\",\"negate\":true,\"type\":\"custom\",\"value\":\"{\\\"bool\\\":{\\\"minimum_should_match\\\":1,\\\"should\\\":[{\\\"match_phrase\\\":{\\\"audit.action.keyword\\\":\\\"Page Entry\\\"}},{\\\"match_phrase\\\":{\\\"audit.action.keyword\\\":\\\"Page entry\\\"}}]}}\",\"indexRefName\":\"kibanaSavedObjectMeta.searchSourceJSON.filter[2].meta.index\"},\"query\":{\"bool\":{\"minimum_should_match\":1,\"should\":[{\"match_phrase\":{\"audit.action.keyword\":\"Page Entry\"}},{\"match_phrase\":{\"audit.action.keyword\":\"Page entry\"}}]}}}],\"indexRefName\":\"kibanaSavedObjectMeta.searchSourceJSON.index\"}"},"title":"Heatmap","uiStateJSON":"{\"vis\":{\"colors\":{\"0 - 12,858\":\"#DEDAF7\",\"0 - 315\":\"#DEDAF7\",\"1,258 - 1,572\":\"#614D93\",\"1,572 - 1,886\":\"#584477\",\"1,886 - 2,200\":\"#3F2B5B\",\"12,858 - 25,715\":\"#AEA2E0\",\"22,500 - 45,000\":\"#DEDAF7\",\"25,715 - 38,572\":\"#806EB7\",\"315 - 629\":\"#AEA2E0\",\"38,572 - 51,429\":\"#705DA0\",\"45,000 - 67,500\":\"#AEA2E0\",\"51,429 - 64,286\":\"#614D93\",\"629 - 943\":\"#806EB7\",\"64,286 - 77,143\":\"#584477\",\"67,500 - 90,000\":\"#705DA0\",\"77,143 - 90,000\":\"#3F2B5B\",\"943 - 1,258\":\"#705DA0\"},\"defaultColors\":{\"0\":\"rgb(247,252,245)\"},\"legendOpen\":false}}","version":1,"visState":"{\"title\":\"Heatmap\",\"type\":\"heatmap\",\"aggs\":[{\"id\":\"1\",\"enabled\":true,\"type\":\"count\",\"params\":{\"customLabel\":\"\"},\"schema\":\"metric\"},{\"id\":\"2\",\"enabled\":true,\"type\":\"filters\",\"params\":{\"filters\":[{\"input\":{\"language\":\"kuery\",\"query\":\"mdc_dayOfWeek.keyword : \\\"Sunday\\\"\"},\"label\":\"Sunday\"},{\"input\":{\"language\":\"kuery\",\"query\":\"mdc_dayOfWeek.keyword : \\\"Monday\\\" \"},\"label\":\"Monday\"},{\"input\":{\"language\":\"kuery\",\"query\":\"mdc_dayOfWeek.keyword : \\\"Tuesday\\\" \"},\"label\":\"Tuesday\"},{\"input\":{\"language\":\"kuery\",\"query\":\"mdc_dayOfWeek.keyword : \\\"Wednesday\\\" \"},\"label\":\"Wednesday\"},{\"input\":{\"language\":\"kuery\",\"query\":\"mdc_dayOfWeek.keyword : \\\"Thursday\\\" \"},\"label\":\"Thursday\"},{\"input\":{\"language\":\"kuery\",\"query\":\"mdc_dayOfWeek.keyword : \\\"Friday\\\" \"},\"label\":\"Friday\"},{\"input\":{\"language\":\"kuery\",\"query\":\"mdc_dayOfWeek.keyword : \\\"Saturday\\\"  \"},\"label\":\"Saturday\"}]},\"schema\":\"segment\"},{\"id\":\"3\",\"enabled\":true,\"type\":\"filters\",\"params\":{\"filters\":[{\"input\":{\"language\":\"kuery\",\"query\":\"mdc_hour.keyword : 23\"},\"label\":\"23:00\"},{\"input\":{\"language\":\"kuery\",\"query\":\"mdc_hour.keyword : 22\"},\"label\":\"22:00\"},{\"input\":{\"query\":\"mdc_hour.keyword : 21\",\"language\":\"kuery\"},\"label\":\"21:00\"},{\"input\":{\"query\":\"mdc_hour.keyword : 20\",\"language\":\"kuery\"},\"label\":\"20:00\"},{\"input\":{\"query\":\"mdc_hour.keyword : 19\",\"language\":\"kuery\"},\"label\":\"19:00\"},{\"input\":{\"query\":\"mdc_hour.keyword : 18\",\"language\":\"kuery\"},\"label\":\"18:00\"},{\"input\":{\"query\":\"mdc_hour.keyword : 17\",\"language\":\"kuery\"},\"label\":\"17:00\"},{\"input\":{\"query\":\"mdc_hour.keyword : 16\",\"language\":\"kuery\"},\"label\":\"16:00\"},{\"input\":{\"query\":\"mdc_hour.keyword : 15\",\"language\":\"kuery\"},\"label\":\"15:00\"},{\"input\":{\"query\":\"mdc_hour.keyword : 14\",\"language\":\"kuery\"},\"label\":\"14:00\"},{\"input\":{\"query\":\"mdc_hour.keyword : 13\",\"language\":\"kuery\"},\"label\":\"13:00\"},{\"input\":{\"query\":\"mdc_hour.keyword : 12\",\"language\":\"kuery\"},\"label\":\"12:00\"},{\"input\":{\"query\":\"mdc_hour.keyword : 11\",\"language\":\"kuery\"},\"label\":\"11:00\"},{\"input\":{\"query\":\"mdc_hour.keyword : 10\",\"language\":\"kuery\"},\"label\":\"10:00\"},{\"input\":{\"query\":\"mdc_hour.keyword : 9\",\"language\":\"kuery\"},\"label\":\"09:00\"},{\"input\":{\"query\":\"mdc_hour.keyword : 8\",\"language\":\"kuery\"},\"label\":\"08:00\"},{\"input\":{\"query\":\"mdc_hour.keyword : 7\",\"language\":\"kuery\"},\"label\":\"07:00\"},{\"input\":{\"query\":\"mdc_hour.keyword : 6\",\"language\":\"kuery\"},\"label\":\"06:00\"},{\"input\":{\"query\":\"mdc_hour.keyword : 5\",\"language\":\"kuery\"},\"label\":\"05:00\"},{\"input\":{\"query\":\"mdc_hour.keyword : 4\",\"language\":\"kuery\"},\"label\":\"04:00\"},{\"input\":{\"query\":\"mdc_hour.keyword : 3\",\"language\":\"kuery\"},\"label\":\"03:00\"},{\"input\":{\"query\":\"mdc_hour.keyword : 2\",\"language\":\"kuery\"},\"label\":\"02:00\"},{\"input\":{\"query\":\"mdc_hour.keyword : 1\",\"language\":\"kuery\"},\"label\":\"01:00\"},{\"input\":{\"query\":\"mdc_hour.keyword : 0\",\"language\":\"kuery\"},\"label\":\"00:00\"}]},\"schema\":\"group\"}],\"params\":{\"addLegend\":true,\"addTooltip\":true,\"colorSchema\":\"Greens\",\"colorsNumber\":7,\"colorsRange\":[],\"enableHover\":false,\"invertColors\":false,\"legendPosition\":\"top\",\"percentageMode\":false,\"setColorRange\":false,\"times\":[],\"type\":\"heatmap\",\"valueAxes\":[{\"id\":\"ValueAxis-1\",\"labels\":{\"color\":\"black\",\"overwriteColor\":false,\"rotate\":0,\"show\":false},\"scale\":{\"defaultYExtents\":false,\"type\":\"linear\"},\"show\":false,\"type\":\"value\"}]}}"},"id":"1312fe10-e9e0-11eb-95fb-b3c2cfbbec5c","migrationVersion":{"visualization":"7.8.0"},"references":[{"id":"0fcae6d0-13eb-11eb-b944-adbba8968291","name":"kibanaSavedObjectMeta.searchSourceJSON.index","type":"index-pattern"},{"id":"0fcae6d0-13eb-11eb-b944-adbba8968291","name":"kibanaSavedObjectMeta.searchSourceJSON.filter[0].meta.index","type":"index-pattern"},{"id":"0fcae6d0-13eb-11eb-b944-adbba8968291","name":"kibanaSavedObjectMeta.searchSourceJSON.filter[1].meta.index","type":"index-pattern"},{"id":"0fcae6d0-13eb-11eb-b944-adbba8968291","name":"kibanaSavedObjectMeta.searchSourceJSON.filter[2].meta.index","type":"index-pattern"}],"type":"visualization","updated_at":"2021-08-30T13:46:22.858Z","version":"WzU1NDg2LDVd"}
{"attributes":{"description":"","kibanaSavedObjectMeta":{"searchSourceJSON":"{\"query\":{\"query\":\"\",\"language\":\"kuery\"},\"filter\":[{\"$state\":{\"store\":\"appState\"},\"exists\":{\"field\":\"audit.action.keyword\"},\"meta\":{\"alias\":null,\"disabled\":false,\"key\":\"audit.action.keyword\",\"negate\":false,\"type\":\"exists\",\"value\":\"exists\",\"indexRefName\":\"kibanaSavedObjectMeta.searchSourceJSON.filter[0].meta.index\"}},{\"$state\":{\"store\":\"appState\"},\"meta\":{\"alias\":null,\"disabled\":false,\"key\":\"query\",\"negate\":true,\"type\":\"custom\",\"value\":\"{\\\"bool\\\":{\\\"minimum_should_match\\\":1,\\\"should\\\":[{\\\"match_phrase\\\":{\\\"module.keyword\\\":\\\"app\\\"}},{\\\"match_phrase\\\":{\\\"module.keyword\\\":\\\"c.l.m.s.datalakequeries.hive2adapter\\\"}},{\\\"match_phrase\\\":{\\\"module.keyword\\\":\\\"c.l.m.security.winauth.gatewayauthfilter\\\"}},{\\\"match_phrase\\\":{\\\"module.keyword\\\":\\\"c.l.mdclone.security.userdetailsservice\\\"}},{\\\"match_phrase\\\":{\\\"module.keyword\\\":\\\"nulls_rate\\\"}},{\\\"match_phrase\\\":{\\\"module.keyword\\\":\\\"null\\\"}},{\\\"match_phrase\\\":{\\\"module.keyword\\\":\\\"file source\\\"}},{\\\"match_phrase\\\":{\\\"module.keyword\\\":\\\"f_publish\\\"}},{\\\"match_phrase\\\":{\\\"module.keyword\\\":\\\"ssh client\\\"}},{\\\"match_phrase\\\":{\\\"module.keyword\\\":\\\"getcolmetadata\\\"}},{\\\"match_phrase\\\":{\\\"module.keyword\\\":\\\"config\\\"}}]}}\",\"indexRefName\":\"kibanaSavedObjectMeta.searchSourceJSON.filter[1].meta.index\"},\"query\":{\"bool\":{\"minimum_should_match\":1,\"should\":[{\"match_phrase\":{\"module.keyword\":\"app\"}},{\"match_phrase\":{\"module.keyword\":\"c.l.m.s.datalakequeries.hive2adapter\"}},{\"match_phrase\":{\"module.keyword\":\"c.l.m.security.winauth.gatewayauthfilter\"}},{\"match_phrase\":{\"module.keyword\":\"c.l.mdclone.security.userdetailsservice\"}},{\"match_phrase\":{\"module.keyword\":\"nulls_rate\"}},{\"match_phrase\":{\"module.keyword\":\"null\"}},{\"match_phrase\":{\"module.keyword\":\"file source\"}},{\"match_phrase\":{\"module.keyword\":\"f_publish\"}},{\"match_phrase\":{\"module.keyword\":\"ssh client\"}},{\"match_phrase\":{\"module.keyword\":\"getcolmetadata\"}},{\"match_phrase\":{\"module.keyword\":\"config\"}}]}}},{\"$state\":{\"store\":\"appState\"},\"meta\":{\"alias\":null,\"disabled\":false,\"key\":\"query\",\"negate\":true,\"type\":\"custom\",\"value\":\"{\\\"bool\\\":{\\\"minimum_should_match\\\":1,\\\"should\\\":[{\\\"match_phrase\\\":{\\\"audit.action.keyword\\\":\\\"Page Entry\\\"}},{\\\"match_phrase\\\":{\\\"audit.action.keyword\\\":\\\"Page entry\\\"}}]}}\",\"indexRefName\":\"kibanaSavedObjectMeta.searchSourceJSON.filter[2].meta.index\"},\"query\":{\"bool\":{\"minimum_should_match\":1,\"should\":[{\"match_phrase\":{\"audit.action.keyword\":\"Page Entry\"}},{\"match_phrase\":{\"audit.action.keyword\":\"Page entry\"}}]}}}],\"indexRefName\":\"kibanaSavedObjectMeta.searchSourceJSON.index\"}"},"title":"logins timeline","uiStateJSON":"{\"vis\":{\"colors\":{\" \":\"#AEA2E0\",\"audit.action: * \":\"#BADFF4\"}}}","version":1,"visState":"{\"title\":\"logins timeline\",\"type\":\"area\",\"aggs\":[{\"id\":\"1\",\"enabled\":true,\"type\":\"cardinality\",\"params\":{\"field\":\"user.keyword\",\"customLabel\":\" \"},\"schema\":\"metric\"},{\"id\":\"2\",\"enabled\":true,\"type\":\"date_histogram\",\"params\":{\"field\":\"mdc_timestamp\",\"timeRange\":{\"from\":\"now-1y\",\"to\":\"now\"},\"useNormalizedEsInterval\":true,\"scaleMetricValues\":false,\"interval\":\"d\",\"drop_partials\":false,\"min_doc_count\":0,\"extended_bounds\":{},\"customLabel\":\" Date\"},\"schema\":\"segment\"}],\"params\":{\"type\":\"area\",\"grid\":{\"categoryLines\":false,\"valueAxis\":\"\"},\"categoryAxes\":[{\"id\":\"CategoryAxis-1\",\"type\":\"category\",\"position\":\"bottom\",\"show\":true,\"style\":{},\"scale\":{\"type\":\"linear\"},\"labels\":{\"show\":true,\"filter\":true,\"truncate\":100},\"title\":{}}],\"valueAxes\":[{\"id\":\"ValueAxis-1\",\"name\":\"LeftAxis-1\",\"type\":\"value\",\"position\":\"left\",\"show\":true,\"style\":{},\"scale\":{\"type\":\"linear\",\"mode\":\"normal\"},\"labels\":{\"show\":true,\"rotate\":0,\"filter\":false,\"truncate\":100},\"title\":{\"text\":\" \"}}],\"seriesParams\":[{\"show\":true,\"type\":\"area\",\"mode\":\"normal\",\"data\":{\"label\":\" \",\"id\":\"1\"},\"drawLinesBetweenPoints\":true,\"lineWidth\":2,\"showCircles\":true,\"interpolate\":\"linear\",\"valueAxis\":\"ValueAxis-1\"}],\"addTooltip\":true,\"addLegend\":true,\"legendPosition\":\"right\",\"times\":[],\"addTimeMarker\":false,\"thresholdLine\":{\"show\":false,\"value\":10,\"width\":1,\"style\":\"full\",\"color\":\"#E7664C\"},\"labels\":{},\"row\":true}}"},"id":"65b8d6e0-4435-11eb-bf78-cffda3f3fc1c","migrationVersion":{"visualization":"7.8.0"},"references":[{"id":"0fcae6d0-13eb-11eb-b944-adbba8968291","name":"kibanaSavedObjectMeta.searchSourceJSON.index","type":"index-pattern"},{"id":"0fcae6d0-13eb-11eb-b944-adbba8968291","name":"kibanaSavedObjectMeta.searchSourceJSON.filter[0].meta.index","type":"index-pattern"},{"id":"0fcae6d0-13eb-11eb-b944-adbba8968291","name":"kibanaSavedObjectMeta.searchSourceJSON.filter[1].meta.index","type":"index-pattern"},{"id":"0fcae6d0-13eb-11eb-b944-adbba8968291","name":"kibanaSavedObjectMeta.searchSourceJSON.filter[2].meta.index","type":"index-pattern"}],"type":"visualization","updated_at":"2021-08-30T13:15:32.888Z","version":"WzU1MzE3LDVd"}
{"attributes":{"description":"","kibanaSavedObjectMeta":{"searchSourceJSON":"{\"query\":{\"query\":\"\",\"language\":\"kuery\"},\"filter\":[{\"$state\":{\"store\":\"appState\"},\"exists\":{\"field\":\"audit.action.keyword\"},\"meta\":{\"alias\":null,\"disabled\":false,\"key\":\"audit.action.keyword\",\"negate\":false,\"type\":\"exists\",\"value\":\"exists\",\"indexRefName\":\"kibanaSavedObjectMeta.searchSourceJSON.filter[0].meta.index\"}},{\"$state\":{\"store\":\"appState\"},\"meta\":{\"alias\":null,\"disabled\":false,\"key\":\"query\",\"negate\":true,\"type\":\"custom\",\"value\":\"{\\\"bool\\\":{\\\"minimum_should_match\\\":1,\\\"should\\\":[{\\\"match_phrase\\\":{\\\"module.keyword\\\":\\\"app\\\"}},{\\\"match_phrase\\\":{\\\"module.keyword\\\":\\\"c.l.m.s.datalakequeries.hive2adapter\\\"}},{\\\"match_phrase\\\":{\\\"module.keyword\\\":\\\"c.l.m.security.winauth.gatewayauthfilter\\\"}},{\\\"match_phrase\\\":{\\\"module.keyword\\\":\\\"c.l.mdclone.security.userdetailsservice\\\"}},{\\\"match_phrase\\\":{\\\"module.keyword\\\":\\\"nulls_rate\\\"}},{\\\"match_phrase\\\":{\\\"module.keyword\\\":\\\"null\\\"}},{\\\"match_phrase\\\":{\\\"module.keyword\\\":\\\"file source\\\"}},{\\\"match_phrase\\\":{\\\"module.keyword\\\":\\\"f_publish\\\"}},{\\\"match_phrase\\\":{\\\"module.keyword\\\":\\\"ssh client\\\"}},{\\\"match_phrase\\\":{\\\"module.keyword\\\":\\\"getcolmetadata\\\"}},{\\\"match_phrase\\\":{\\\"module.keyword\\\":\\\"config\\\"}}]}}\",\"indexRefName\":\"kibanaSavedObjectMeta.searchSourceJSON.filter[1].meta.index\"},\"query\":{\"bool\":{\"minimum_should_match\":1,\"should\":[{\"match_phrase\":{\"module.keyword\":\"app\"}},{\"match_phrase\":{\"module.keyword\":\"c.l.m.s.datalakequeries.hive2adapter\"}},{\"match_phrase\":{\"module.keyword\":\"c.l.m.security.winauth.gatewayauthfilter\"}},{\"match_phrase\":{\"module.keyword\":\"c.l.mdclone.security.userdetailsservice\"}},{\"match_phrase\":{\"module.keyword\":\"nulls_rate\"}},{\"match_phrase\":{\"module.keyword\":\"null\"}},{\"match_phrase\":{\"module.keyword\":\"file source\"}},{\"match_phrase\":{\"module.keyword\":\"f_publish\"}},{\"match_phrase\":{\"module.keyword\":\"ssh client\"}},{\"match_phrase\":{\"module.keyword\":\"getcolmetadata\"}},{\"match_phrase\":{\"module.keyword\":\"config\"}}]}}},{\"$state\":{\"store\":\"appState\"},\"meta\":{\"alias\":null,\"disabled\":false,\"key\":\"query\",\"negate\":true,\"type\":\"custom\",\"value\":\"{\\\"bool\\\":{\\\"minimum_should_match\\\":1,\\\"should\\\":[{\\\"match_phrase\\\":{\\\"audit.action.keyword\\\":\\\"Page Entry\\\"}},{\\\"match_phrase\\\":{\\\"audit.action.keyword\\\":\\\"Page entry\\\"}}]}}\",\"indexRefName\":\"kibanaSavedObjectMeta.searchSourceJSON.filter[2].meta.index\"},\"query\":{\"bool\":{\"minimum_should_match\":1,\"should\":[{\"match_phrase\":{\"audit.action.keyword\":\"Page Entry\"}},{\"match_phrase\":{\"audit.action.keyword\":\"Page entry\"}}]}}}],\"indexRefName\":\"kibanaSavedObjectMeta.searchSourceJSON.index\"}"},"title":"Audit Count","uiStateJSON":"{}","version":1,"visState":"{\"title\":\"Audit Count\",\"type\":\"metric\",\"aggs\":[{\"id\":\"1\",\"enabled\":true,\"type\":\"count\",\"params\":{\"customLabel\":\"\"},\"schema\":\"metric\"}],\"params\":{\"addTooltip\":true,\"addLegend\":false,\"type\":\"metric\",\"metric\":{\"percentageMode\":false,\"useRanges\":false,\"colorSchema\":\"Greens\",\"metricColorMode\":\"None\",\"colorsRange\":[{\"from\":0,\"to\":0}],\"labels\":{\"show\":false},\"invertColors\":false,\"style\":{\"bgFill\":\"#000\",\"bgColor\":false,\"labelColor\":false,\"subText\":\"\",\"fontSize\":16}}}}"},"id":"4d840590-7c39-11eb-832f-d9e1018299fd","migrationVersion":{"visualization":"7.8.0"},"references":[{"id":"0fcae6d0-13eb-11eb-b944-adbba8968291","name":"kibanaSavedObjectMeta.searchSourceJSON.index","type":"index-pattern"},{"id":"0fcae6d0-13eb-11eb-b944-adbba8968291","name":"kibanaSavedObjectMeta.searchSourceJSON.filter[0].meta.index","type":"index-pattern"},{"id":"0fcae6d0-13eb-11eb-b944-adbba8968291","name":"kibanaSavedObjectMeta.searchSourceJSON.filter[1].meta.index","type":"index-pattern"},{"id":"0fcae6d0-13eb-11eb-b944-adbba8968291","name":"kibanaSavedObjectMeta.searchSourceJSON.filter[2].meta.index","type":"index-pattern"}],"type":"visualization","updated_at":"2021-08-30T13:20:01.646Z","version":"WzU1MzI2LDVd"}
{"attributes":{"description":"","kibanaSavedObjectMeta":{"searchSourceJSON":"{\"query\":{\"query\":\"\",\"language\":\"kuery\"},\"filter\":[{\"$state\":{\"store\":\"appState\"},\"exists\":{\"field\":\"audit.action.keyword\"},\"meta\":{\"alias\":null,\"disabled\":false,\"key\":\"audit.action.keyword\",\"negate\":false,\"type\":\"exists\",\"value\":\"exists\",\"indexRefName\":\"kibanaSavedObjectMeta.searchSourceJSON.filter[0].meta.index\"}},{\"$state\":{\"store\":\"appState\"},\"meta\":{\"alias\":null,\"disabled\":false,\"key\":\"query\",\"negate\":true,\"type\":\"custom\",\"value\":\"{\\\"bool\\\":{\\\"minimum_should_match\\\":1,\\\"should\\\":[{\\\"match_phrase\\\":{\\\"module.keyword\\\":\\\"app\\\"}},{\\\"match_phrase\\\":{\\\"module.keyword\\\":\\\"c.l.m.s.datalakequeries.hive2adapter\\\"}},{\\\"match_phrase\\\":{\\\"module.keyword\\\":\\\"c.l.m.security.winauth.gatewayauthfilter\\\"}},{\\\"match_phrase\\\":{\\\"module.keyword\\\":\\\"c.l.mdclone.security.userdetailsservice\\\"}},{\\\"match_phrase\\\":{\\\"module.keyword\\\":\\\"nulls_rate\\\"}},{\\\"match_phrase\\\":{\\\"module.keyword\\\":\\\"null\\\"}},{\\\"match_phrase\\\":{\\\"module.keyword\\\":\\\"file source\\\"}},{\\\"match_phrase\\\":{\\\"module.keyword\\\":\\\"f_publish\\\"}},{\\\"match_phrase\\\":{\\\"module.keyword\\\":\\\"ssh client\\\"}},{\\\"match_phrase\\\":{\\\"module.keyword\\\":\\\"getcolmetadata\\\"}},{\\\"match_phrase\\\":{\\\"module.keyword\\\":\\\"config\\\"}}]}}\",\"indexRefName\":\"kibanaSavedObjectMeta.searchSourceJSON.filter[1].meta.index\"},\"query\":{\"bool\":{\"minimum_should_match\":1,\"should\":[{\"match_phrase\":{\"module.keyword\":\"app\"}},{\"match_phrase\":{\"module.keyword\":\"c.l.m.s.datalakequeries.hive2adapter\"}},{\"match_phrase\":{\"module.keyword\":\"c.l.m.security.winauth.gatewayauthfilter\"}},{\"match_phrase\":{\"module.keyword\":\"c.l.mdclone.security.userdetailsservice\"}},{\"match_phrase\":{\"module.keyword\":\"nulls_rate\"}},{\"match_phrase\":{\"module.keyword\":\"null\"}},{\"match_phrase\":{\"module.keyword\":\"file source\"}},{\"match_phrase\":{\"module.keyword\":\"f_publish\"}},{\"match_phrase\":{\"module.keyword\":\"ssh client\"}},{\"match_phrase\":{\"module.keyword\":\"getcolmetadata\"}},{\"match_phrase\":{\"module.keyword\":\"config\"}}]}}},{\"$state\":{\"store\":\"appState\"},\"meta\":{\"alias\":null,\"disabled\":false,\"key\":\"query\",\"negate\":true,\"type\":\"custom\",\"value\":\"{\\\"bool\\\":{\\\"minimum_should_match\\\":1,\\\"should\\\":[{\\\"match_phrase\\\":{\\\"audit.action.keyword\\\":\\\"Page Entry\\\"}},{\\\"match_phrase\\\":{\\\"audit.action.keyword\\\":\\\"Page entry\\\"}}]}}\",\"indexRefName\":\"kibanaSavedObjectMeta.searchSourceJSON.filter[2].meta.index\"},\"query\":{\"bool\":{\"minimum_should_match\":1,\"should\":[{\"match_phrase\":{\"audit.action.keyword\":\"Page Entry\"}},{\"match_phrase\":{\"audit.action.keyword\":\"Page entry\"}}]}}}],\"indexRefName\":\"kibanaSavedObjectMeta.searchSourceJSON.index\"}"},"title":"Users Count","uiStateJSON":"{}","version":1,"visState":"{\"title\":\"Users Count\",\"type\":\"metric\",\"aggs\":[{\"id\":\"1\",\"enabled\":true,\"type\":\"cardinality\",\"params\":{\"field\":\"user.keyword\"},\"schema\":\"metric\"}],\"params\":{\"addTooltip\":true,\"addLegend\":false,\"type\":\"metric\",\"metric\":{\"percentageMode\":false,\"useRanges\":false,\"colorSchema\":\"Greens\",\"metricColorMode\":\"None\",\"colorsRange\":[{\"from\":0,\"to\":0}],\"labels\":{\"show\":false},\"invertColors\":false,\"style\":{\"bgFill\":\"#000\",\"bgColor\":false,\"labelColor\":false,\"subText\":\"\",\"fontSize\":16}}}}"},"id":"cce9bfe0-7c49-11eb-832f-d9e1018299fd","migrationVersion":{"visualization":"7.8.0"},"references":[{"id":"0fcae6d0-13eb-11eb-b944-adbba8968291","name":"kibanaSavedObjectMeta.searchSourceJSON.index","type":"index-pattern"},{"id":"0fcae6d0-13eb-11eb-b944-adbba8968291","name":"kibanaSavedObjectMeta.searchSourceJSON.filter[0].meta.index","type":"index-pattern"},{"id":"0fcae6d0-13eb-11eb-b944-adbba8968291","name":"kibanaSavedObjectMeta.searchSourceJSON.filter[1].meta.index","type":"index-pattern"},{"id":"0fcae6d0-13eb-11eb-b944-adbba8968291","name":"kibanaSavedObjectMeta.searchSourceJSON.filter[2].meta.index","type":"index-pattern"}],"type":"visualization","updated_at":"2021-08-30T13:21:49.810Z","version":"WzU1MzM0LDVd"}
{"attributes":{"description":"","kibanaSavedObjectMeta":{"searchSourceJSON":"{\"query\":{\"query\":\"\",\"language\":\"kuery\"},\"filter\":[{\"$state\":{\"store\":\"appState\"},\"exists\":{\"field\":\"audit.action\"},\"meta\":{\"alias\":null,\"disabled\":false,\"key\":\"audit.action\",\"negate\":false,\"type\":\"exists\",\"value\":\"exists\",\"indexRefName\":\"kibanaSavedObjectMeta.searchSourceJSON.filter[0].meta.index\"}},{\"$state\":{\"store\":\"appState\"},\"meta\":{\"alias\":null,\"disabled\":false,\"key\":\"query\",\"negate\":true,\"type\":\"custom\",\"value\":\"{\\\"bool\\\":{\\\"minimum_should_match\\\":1,\\\"should\\\":[{\\\"match_phrase\\\":{\\\"module.keyword\\\":\\\"app\\\"}},{\\\"match_phrase\\\":{\\\"module.keyword\\\":\\\"c.l.m.s.datalakequeries.hive2adapter\\\"}},{\\\"match_phrase\\\":{\\\"module.keyword\\\":\\\"c.l.m.security.winauth.gatewayauthfilter\\\"}},{\\\"match_phrase\\\":{\\\"module.keyword\\\":\\\"c.l.mdclone.security.userdetailsservice\\\"}},{\\\"match_phrase\\\":{\\\"module.keyword\\\":\\\"nulls_rate\\\"}},{\\\"match_phrase\\\":{\\\"module.keyword\\\":\\\"null\\\"}},{\\\"match_phrase\\\":{\\\"module.keyword\\\":\\\"file source\\\"}},{\\\"match_phrase\\\":{\\\"module.keyword\\\":\\\"f_publish\\\"}},{\\\"match_phrase\\\":{\\\"module.keyword\\\":\\\"ssh client\\\"}},{\\\"match_phrase\\\":{\\\"module.keyword\\\":\\\"getcolmetadata\\\"}},{\\\"match_phrase\\\":{\\\"module.keyword\\\":\\\"config\\\"}}]}}\",\"indexRefName\":\"kibanaSavedObjectMeta.searchSourceJSON.filter[1].meta.index\"},\"query\":{\"bool\":{\"minimum_should_match\":1,\"should\":[{\"match_phrase\":{\"module.keyword\":\"app\"}},{\"match_phrase\":{\"module.keyword\":\"c.l.m.s.datalakequeries.hive2adapter\"}},{\"match_phrase\":{\"module.keyword\":\"c.l.m.security.winauth.gatewayauthfilter\"}},{\"match_phrase\":{\"module.keyword\":\"c.l.mdclone.security.userdetailsservice\"}},{\"match_phrase\":{\"module.keyword\":\"nulls_rate\"}},{\"match_phrase\":{\"module.keyword\":\"null\"}},{\"match_phrase\":{\"module.keyword\":\"file source\"}},{\"match_phrase\":{\"module.keyword\":\"f_publish\"}},{\"match_phrase\":{\"module.keyword\":\"ssh client\"}},{\"match_phrase\":{\"module.keyword\":\"getcolmetadata\"}},{\"match_phrase\":{\"module.keyword\":\"config\"}}]}}},{\"$state\":{\"store\":\"appState\"},\"meta\":{\"alias\":null,\"disabled\":false,\"key\":\"query\",\"negate\":true,\"type\":\"custom\",\"value\":\"{\\\"bool\\\":{\\\"minimum_should_match\\\":1,\\\"should\\\":[{\\\"match_phrase\\\":{\\\"audit.action.keyword\\\":\\\"Page Entry\\\"}},{\\\"match_phrase\\\":{\\\"audit.action.keyword\\\":\\\"Page entry\\\"}}]}}\",\"indexRefName\":\"kibanaSavedObjectMeta.searchSourceJSON.filter[2].meta.index\"},\"query\":{\"bool\":{\"minimum_should_match\":1,\"should\":[{\"match_phrase\":{\"audit.action.keyword\":\"Page Entry\"}},{\"match_phrase\":{\"audit.action.keyword\":\"Page entry\"}}]}}}]}"},"title":"Control - Users","uiStateJSON":"{}","version":1,"visState":"{\"title\":\"Control - Users\",\"type\":\"input_control_vis\",\"aggs\":[],\"params\":{\"controls\":[{\"id\":\"1626089790304\",\"fieldName\":\"user.keyword\",\"parent\":\"\",\"label\":\"Users\",\"type\":\"list\",\"options\":{\"type\":\"terms\",\"multiselect\":true,\"dynamicOptions\":true,\"size\":5,\"order\":\"desc\"},\"indexPatternRefName\":\"control_0_index_pattern\"}],\"updateFiltersOnChange\":false,\"useTimeFilter\":false,\"pinFilters\":false}}"},"id":"a6fd93b0-e305-11eb-935d-434cc36ade6c","migrationVersion":{"visualization":"7.8.0"},"references":[{"id":"0fcae6d0-13eb-11eb-b944-adbba8968291","name":"kibanaSavedObjectMeta.searchSourceJSON.filter[0].meta.index","type":"index-pattern"},{"id":"0fcae6d0-13eb-11eb-b944-adbba8968291","name":"kibanaSavedObjectMeta.searchSourceJSON.filter[1].meta.index","type":"index-pattern"},{"id":"0fcae6d0-13eb-11eb-b944-adbba8968291","name":"kibanaSavedObjectMeta.searchSourceJSON.filter[2].meta.index","type":"index-pattern"},{"id":"0fcae6d0-13eb-11eb-b944-adbba8968291","name":"control_0_index_pattern","type":"index-pattern"}],"type":"visualization","updated_at":"2021-08-30T13:23:07.018Z","version":"WzU1MzM4LDVd"}
{"attributes":{"description":"","kibanaSavedObjectMeta":{"searchSourceJSON":"{\"query\":{\"query\":\"\",\"language\":\"kuery\"},\"filter\":[{\"$state\":{\"store\":\"appState\"},\"exists\":{\"field\":\"audit.action.keyword\"},\"meta\":{\"alias\":null,\"disabled\":false,\"key\":\"audit.action.keyword\",\"negate\":false,\"type\":\"exists\",\"value\":\"exists\",\"indexRefName\":\"kibanaSavedObjectMeta.searchSourceJSON.filter[0].meta.index\"}},{\"$state\":{\"store\":\"appState\"},\"meta\":{\"alias\":null,\"disabled\":false,\"key\":\"query\",\"negate\":true,\"type\":\"custom\",\"value\":\"{\\\"bool\\\":{\\\"minimum_should_match\\\":1,\\\"should\\\":[{\\\"match_phrase\\\":{\\\"module.keyword\\\":\\\"app\\\"}},{\\\"match_phrase\\\":{\\\"module.keyword\\\":\\\"c.l.m.s.datalakequeries.hive2adapter\\\"}},{\\\"match_phrase\\\":{\\\"module.keyword\\\":\\\"c.l.m.security.winauth.gatewayauthfilter\\\"}},{\\\"match_phrase\\\":{\\\"module.keyword\\\":\\\"c.l.mdclone.security.userdetailsservice\\\"}},{\\\"match_phrase\\\":{\\\"module.keyword\\\":\\\"nulls_rate\\\"}},{\\\"match_phrase\\\":{\\\"module.keyword\\\":\\\"null\\\"}},{\\\"match_phrase\\\":{\\\"module.keyword\\\":\\\"file source\\\"}},{\\\"match_phrase\\\":{\\\"module.keyword\\\":\\\"f_publish\\\"}},{\\\"match_phrase\\\":{\\\"module.keyword\\\":\\\"ssh client\\\"}},{\\\"match_phrase\\\":{\\\"module.keyword\\\":\\\"getcolmetadata\\\"}},{\\\"match_phrase\\\":{\\\"module.keyword\\\":\\\"config\\\"}}]}}\",\"indexRefName\":\"kibanaSavedObjectMeta.searchSourceJSON.filter[1].meta.index\"},\"query\":{\"bool\":{\"minimum_should_match\":1,\"should\":[{\"match_phrase\":{\"module.keyword\":\"app\"}},{\"match_phrase\":{\"module.keyword\":\"c.l.m.s.datalakequeries.hive2adapter\"}},{\"match_phrase\":{\"module.keyword\":\"c.l.m.security.winauth.gatewayauthfilter\"}},{\"match_phrase\":{\"module.keyword\":\"c.l.mdclone.security.userdetailsservice\"}},{\"match_phrase\":{\"module.keyword\":\"nulls_rate\"}},{\"match_phrase\":{\"module.keyword\":\"null\"}},{\"match_phrase\":{\"module.keyword\":\"file source\"}},{\"match_phrase\":{\"module.keyword\":\"f_publish\"}},{\"match_phrase\":{\"module.keyword\":\"ssh client\"}},{\"match_phrase\":{\"module.keyword\":\"getcolmetadata\"}},{\"match_phrase\":{\"module.keyword\":\"config\"}}]}}},{\"$state\":{\"store\":\"appState\"},\"meta\":{\"alias\":null,\"disabled\":false,\"key\":\"query\",\"negate\":true,\"type\":\"custom\",\"value\":\"{\\\"bool\\\":{\\\"minimum_should_match\\\":1,\\\"should\\\":[{\\\"match_phrase\\\":{\\\"audit.action.keyword\\\":\\\"Page Entry\\\"}},{\\\"match_phrase\\\":{\\\"audit.action.keyword\\\":\\\"Page entry\\\"}}]}}\",\"indexRefName\":\"kibanaSavedObjectMeta.searchSourceJSON.filter[2].meta.index\"},\"query\":{\"bool\":{\"minimum_should_match\":1,\"should\":[{\"match_phrase\":{\"audit.action.keyword\":\"Page Entry\"}},{\"match_phrase\":{\"audit.action.keyword\":\"Page entry\"}}]}}}],\"indexRefName\":\"kibanaSavedObjectMeta.searchSourceJSON.index\"}"},"title":"log-details-audit","uiStateJSON":"{\"vis\":{\"params\":{\"sort\":{\"columnIndex\":null,\"direction\":null}}}}","version":1,"visState":"{\"title\":\"log-details-audit\",\"type\":\"table\",\"aggs\":[{\"id\":\"1\",\"enabled\":true,\"type\":\"count\",\"params\":{},\"schema\":\"metric\"},{\"id\":\"2\",\"enabled\":true,\"type\":\"date_histogram\",\"params\":{\"field\":\"mdc_timestamp\",\"timeRange\":{\"from\":\"now-1y\",\"to\":\"now\"},\"useNormalizedEsInterval\":true,\"scaleMetricValues\":false,\"interval\":\"ms\",\"drop_partials\":false,\"min_doc_count\":1,\"extended_bounds\":{},\"customLabel\":\"Log Date\"},\"schema\":\"bucket\"},{\"id\":\"3\",\"enabled\":true,\"type\":\"terms\",\"params\":{\"field\":\"log_level.keyword\",\"orderBy\":\"1\",\"order\":\"desc\",\"size\":5,\"otherBucket\":false,\"otherBucketLabel\":\"Other\",\"missingBucket\":false,\"missingBucketLabel\":\"Missing\",\"customLabel\":\"Log Level\"},\"schema\":\"bucket\"},{\"id\":\"4\",\"enabled\":true,\"type\":\"terms\",\"params\":{\"field\":\"user.keyword\",\"orderBy\":\"1\",\"order\":\"desc\",\"size\":5,\"otherBucket\":false,\"otherBucketLabel\":\"Other\",\"missingBucket\":false,\"missingBucketLabel\":\"Missing\",\"customLabel\":\"User\"},\"schema\":\"bucket\"},{\"id\":\"5\",\"enabled\":true,\"type\":\"terms\",\"params\":{\"field\":\"application.keyword\",\"orderBy\":\"1\",\"order\":\"desc\",\"size\":5,\"otherBucket\":false,\"otherBucketLabel\":\"Other\",\"missingBucket\":false,\"missingBucketLabel\":\"Missing\",\"customLabel\":\"Application\"},\"schema\":\"bucket\"},{\"id\":\"6\",\"enabled\":true,\"type\":\"terms\",\"params\":{\"field\":\"module.keyword\",\"orderBy\":\"1\",\"order\":\"desc\",\"size\":5,\"otherBucket\":false,\"otherBucketLabel\":\"Other\",\"missingBucket\":false,\"missingBucketLabel\":\"Missing\",\"customLabel\":\"Module\"},\"schema\":\"bucket\"},{\"id\":\"10\",\"enabled\":true,\"type\":\"terms\",\"params\":{\"field\":\"audit.action.keyword\",\"orderBy\":\"1\",\"order\":\"desc\",\"size\":5,\"otherBucket\":false,\"otherBucketLabel\":\"Other\",\"missingBucket\":false,\"missingBucketLabel\":\"Missing\",\"customLabel\":\"Action\"},\"schema\":\"bucket\"},{\"id\":\"7\",\"enabled\":true,\"type\":\"terms\",\"params\":{\"field\":\"mdc_log_msg.keyword\",\"orderBy\":\"1\",\"order\":\"desc\",\"size\":5,\"otherBucket\":false,\"otherBucketLabel\":\"Other\",\"missingBucket\":true,\"missingBucketLabel\":\"Missing\",\"customLabel\":\"Log Message\"},\"schema\":\"bucket\"}],\"params\":{\"perPage\":10,\"showPartialRows\":false,\"showMetricsAtAllLevels\":false,\"sort\":{\"columnIndex\":null,\"direction\":null},\"showTotal\":false,\"totalFunc\":\"sum\",\"percentageCol\":\"\",\"row\":true}}"},"id":"2a997c30-33d3-11eb-bf78-cffda3f3fc1c","migrationVersion":{"visualization":"7.8.0"},"references":[{"id":"0fcae6d0-13eb-11eb-b944-adbba8968291","name":"kibanaSavedObjectMeta.searchSourceJSON.index","type":"index-pattern"},{"id":"0fcae6d0-13eb-11eb-b944-adbba8968291","name":"kibanaSavedObjectMeta.searchSourceJSON.filter[0].meta.index","type":"index-pattern"},{"id":"0fcae6d0-13eb-11eb-b944-adbba8968291","name":"kibanaSavedObjectMeta.searchSourceJSON.filter[1].meta.index","type":"index-pattern"},{"id":"0fcae6d0-13eb-11eb-b944-adbba8968291","name":"kibanaSavedObjectMeta.searchSourceJSON.filter[2].meta.index","type":"index-pattern"}],"type":"visualization","updated_at":"2021-08-30T13:24:05.463Z","version":"WzU1MzQ3LDVd"}
{"attributes":{"description":"","kibanaSavedObjectMeta":{"searchSourceJSON":"{\"query\":{\"query\":\"\",\"language\":\"kuery\"},\"filter\":[{\"$state\":{\"store\":\"appState\"},\"exists\":{\"field\":\"audit.action\"},\"meta\":{\"alias\":null,\"disabled\":false,\"key\":\"audit.action\",\"negate\":false,\"type\":\"exists\",\"value\":\"exists\",\"indexRefName\":\"kibanaSavedObjectMeta.searchSourceJSON.filter[0].meta.index\"}},{\"$state\":{\"store\":\"appState\"},\"meta\":{\"alias\":null,\"disabled\":false,\"key\":\"query\",\"negate\":true,\"type\":\"custom\",\"value\":\"{\\\"bool\\\":{\\\"minimum_should_match\\\":1,\\\"should\\\":[{\\\"match_phrase\\\":{\\\"module.keyword\\\":\\\"app\\\"}},{\\\"match_phrase\\\":{\\\"module.keyword\\\":\\\"c.l.m.s.datalakequeries.hive2adapter\\\"}},{\\\"match_phrase\\\":{\\\"module.keyword\\\":\\\"c.l.m.security.winauth.gatewayauthfilter\\\"}},{\\\"match_phrase\\\":{\\\"module.keyword\\\":\\\"c.l.mdclone.security.userdetailsservice\\\"}},{\\\"match_phrase\\\":{\\\"module.keyword\\\":\\\"nulls_rate\\\"}},{\\\"match_phrase\\\":{\\\"module.keyword\\\":\\\"null\\\"}},{\\\"match_phrase\\\":{\\\"module.keyword\\\":\\\"file source\\\"}},{\\\"match_phrase\\\":{\\\"module.keyword\\\":\\\"f_publish\\\"}},{\\\"match_phrase\\\":{\\\"module.keyword\\\":\\\"ssh client\\\"}},{\\\"match_phrase\\\":{\\\"module.keyword\\\":\\\"getcolmetadata\\\"}},{\\\"match_phrase\\\":{\\\"module.keyword\\\":\\\"config\\\"}}]}}\",\"indexRefName\":\"kibanaSavedObjectMeta.searchSourceJSON.filter[1].meta.index\"},\"query\":{\"bool\":{\"minimum_should_match\":1,\"should\":[{\"match_phrase\":{\"module.keyword\":\"app\"}},{\"match_phrase\":{\"module.keyword\":\"c.l.m.s.datalakequeries.hive2adapter\"}},{\"match_phrase\":{\"module.keyword\":\"c.l.m.security.winauth.gatewayauthfilter\"}},{\"match_phrase\":{\"module.keyword\":\"c.l.mdclone.security.userdetailsservice\"}},{\"match_phrase\":{\"module.keyword\":\"nulls_rate\"}},{\"match_phrase\":{\"module.keyword\":\"null\"}},{\"match_phrase\":{\"module.keyword\":\"file source\"}},{\"match_phrase\":{\"module.keyword\":\"f_publish\"}},{\"match_phrase\":{\"module.keyword\":\"ssh client\"}},{\"match_phrase\":{\"module.keyword\":\"getcolmetadata\"}},{\"match_phrase\":{\"module.keyword\":\"config\"}}]}}},{\"$state\":{\"store\":\"appState\"},\"meta\":{\"alias\":null,\"disabled\":false,\"key\":\"query\",\"negate\":true,\"type\":\"custom\",\"value\":\"{\\\"bool\\\":{\\\"minimum_should_match\\\":1,\\\"should\\\":[{\\\"match_phrase\\\":{\\\"audit.action.keyword\\\":\\\"Page Entry\\\"}},{\\\"match_phrase\\\":{\\\"audit.action.keyword\\\":\\\"Page entry\\\"}}]}}\",\"indexRefName\":\"kibanaSavedObjectMeta.searchSourceJSON.filter[2].meta.index\"},\"query\":{\"bool\":{\"minimum_should_match\":1,\"should\":[{\"match_phrase\":{\"audit.action.keyword\":\"Page Entry\"}},{\"match_phrase\":{\"audit.action.keyword\":\"Page entry\"}}]}}}],\"indexRefName\":\"kibanaSavedObjectMeta.searchSourceJSON.index\"}"},"title":"Audit - Top Users","uiStateJSON":"{}","version":1,"visState":"{\"title\":\"Audit - Top Users\",\"type\":\"histogram\",\"aggs\":[{\"id\":\"1\",\"enabled\":true,\"type\":\"count\",\"params\":{\"customLabel\":\"\"},\"schema\":\"metric\"},{\"id\":\"2\",\"enabled\":true,\"type\":\"terms\",\"params\":{\"field\":\"user.keyword\",\"orderBy\":\"1\",\"order\":\"desc\",\"size\":20,\"otherBucket\":false,\"otherBucketLabel\":\"Other\",\"missingBucket\":false,\"missingBucketLabel\":\"Missing\",\"customLabel\":\"Count of User Activity\"},\"schema\":\"segment\"}],\"params\":{\"type\":\"histogram\",\"grid\":{\"categoryLines\":false},\"categoryAxes\":[{\"id\":\"CategoryAxis-1\",\"type\":\"category\",\"position\":\"left\",\"show\":true,\"style\":{},\"scale\":{\"type\":\"linear\"},\"labels\":{\"show\":true,\"rotate\":0,\"filter\":false,\"truncate\":200},\"title\":{}}],\"valueAxes\":[{\"id\":\"ValueAxis-1\",\"name\":\"LeftAxis-1\",\"type\":\"value\",\"position\":\"bottom\",\"show\":false,\"style\":{},\"scale\":{\"type\":\"linear\",\"mode\":\"normal\"},\"labels\":{\"show\":true,\"rotate\":75,\"filter\":true,\"truncate\":100},\"title\":{\"text\":\"Count\"}}],\"seriesParams\":[{\"show\":true,\"type\":\"histogram\",\"mode\":\"normal\",\"data\":{\"label\":\"Count\",\"id\":\"1\"},\"valueAxis\":\"ValueAxis-1\",\"drawLinesBetweenPoints\":true,\"lineWidth\":2,\"showCircles\":true}],\"addTooltip\":true,\"addLegend\":true,\"legendPosition\":\"right\",\"times\":[],\"addTimeMarker\":false,\"labels\":{\"show\":true},\"thresholdLine\":{\"show\":false,\"value\":10,\"width\":1,\"style\":\"full\",\"color\":\"#E7664C\"}}}"},"id":"f39ebde0-e560-11eb-935d-434cc36ade6c","migrationVersion":{"visualization":"7.8.0"},"references":[{"id":"0fcae6d0-13eb-11eb-b944-adbba8968291","name":"kibanaSavedObjectMeta.searchSourceJSON.index","type":"index-pattern"},{"id":"0fcae6d0-13eb-11eb-b944-adbba8968291","name":"kibanaSavedObjectMeta.searchSourceJSON.filter[0].meta.index","type":"index-pattern"},{"id":"0fcae6d0-13eb-11eb-b944-adbba8968291","name":"kibanaSavedObjectMeta.searchSourceJSON.filter[1].meta.index","type":"index-pattern"},{"id":"0fcae6d0-13eb-11eb-b944-adbba8968291","name":"kibanaSavedObjectMeta.searchSourceJSON.filter[2].meta.index","type":"index-pattern"}],"type":"visualization","updated_at":"2021-08-30T13:25:42.358Z","version":"WzU1MzU3LDVd"}
{"attributes":{"description":"","hits":0,"kibanaSavedObjectMeta":{"searchSourceJSON":"{\"query\":{\"language\":\"kuery\",\"query\":\"\"},\"filter\":[]}"},"optionsJSON":"{\"hidePanelTitles\":false,\"useMargins\":true}","panelsJSON":"[{\"version\":\"7.9.2\",\"gridData\":{\"x\":0,\"y\":0,\"w\":15,\"h\":18,\"i\":\"3ecb769b-eaa9-4209-89c4-302ee9dba878\"},\"panelIndex\":\"3ecb769b-eaa9-4209-89c4-302ee9dba878\",\"embeddableConfig\":{\"title\":\"Module Usage Count\",\"vis\":{\"colors\":{\"Count\":\"#705DA0\",\"Count of records\":\"#705DA0\"},\"legendOpen\":false}},\"title\":\"Module Usage Count\",\"panelRefName\":\"panel_0\"},{\"version\":\"7.9.2\",\"gridData\":{\"x\":15,\"y\":0,\"w\":16,\"h\":18,\"i\":\"3f45c26b-497d-4ae9-8621-6d222a3e384b\"},\"panelIndex\":\"3f45c26b-497d-4ae9-8621-6d222a3e384b\",\"embeddableConfig\":{\"title\":\"Action Count\",\"vis\":{\"colors\":{\"Action\":\"#D683CE\",\"Count\":\"#BA43A9\"},\"legendOpen\":false}},\"title\":\"Action Count\",\"panelRefName\":\"panel_1\"},{\"version\":\"7.9.2\",\"gridData\":{\"x\":31,\"y\":0,\"w\":17,\"h\":18,\"i\":\"9b0785a4-63ac-4d3d-a173-a612e877cbcf\"},\"panelIndex\":\"9b0785a4-63ac-4d3d-a173-a612e877cbcf\",\"embeddableConfig\":{\"title\":\"Activity per hour\",\"table\":null,\"vis\":{\"colors\":{\"0 - 12,858\":\"#DEDAF7\",\"0 - 315\":\"#DEDAF7\",\"1,258 - 1,572\":\"#614D93\",\"1,572 - 1,886\":\"#584477\",\"1,886 - 2,200\":\"#3F2B5B\",\"12,858 - 25,715\":\"#AEA2E0\",\"22,500 - 45,000\":\"#DEDAF7\",\"25,715 - 38,572\":\"#806EB7\",\"315 - 629\":\"#AEA2E0\",\"38,572 - 51,429\":\"#705DA0\",\"45,000 - 67,500\":\"#AEA2E0\",\"51,429 - 64,286\":\"#614D93\",\"629 - 943\":\"#806EB7\",\"64,286 - 77,143\":\"#584477\",\"67,500 - 90,000\":\"#705DA0\",\"77,143 - 90,000\":\"#3F2B5B\",\"943 - 1,258\":\"#705DA0\"},\"defaultColors\":{\"0 - 315\":\"rgb(247,252,245)\",\"1,258 - 1,572\":\"rgb(86,182,104)\",\"1,572 - 1,886\":\"rgb(43,148,76)\",\"1,886 - 2,200\":\"rgb(5,113,47)\",\"315 - 629\":\"rgb(225,244,220)\",\"629 - 943\":\"rgb(188,229,181)\",\"943 - 1,258\":\"rgb(142,208,139)\"},\"legendOpen\":false}},\"title\":\"Activity per hour\",\"panelRefName\":\"panel_2\"},{\"version\":\"7.9.2\",\"gridData\":{\"x\":0,\"y\":18,\"w\":31,\"h\":10,\"i\":\"dec65c14-f237-49a8-b286-cc85ace1133c\"},\"panelIndex\":\"dec65c14-f237-49a8-b286-cc85ace1133c\",\"embeddableConfig\":{\"title\":\"Number of Logins per Day\",\"table\":null,\"vis\":{\"colors\":{\" \":\"#AEA2E0\",\"audit.action: * \":\"#BADFF4\"},\"legendOpen\":false}},\"title\":\"Number of Logins per Day\",\"panelRefName\":\"panel_3\"},{\"version\":\"7.9.2\",\"gridData\":{\"x\":31,\"y\":18,\"w\":9,\"h\":4,\"i\":\"0b752026-818f-4c35-b79e-423c99e69186\"},\"panelIndex\":\"0b752026-818f-4c35-b79e-423c99e69186\",\"embeddableConfig\":{},\"panelRefName\":\"panel_4\"},{\"version\":\"7.9.2\",\"gridData\":{\"x\":40,\"y\":18,\"w\":8,\"h\":4,\"i\":\"ba190e5f-e459-4c1d-a434-a4b3688bb94b\"},\"panelIndex\":\"ba190e5f-e459-4c1d-a434-a4b3688bb94b\",\"embeddableConfig\":{},\"panelRefName\":\"panel_5\"},{\"version\":\"7.9.2\",\"gridData\":{\"x\":31,\"y\":22,\"w\":17,\"h\":6,\"i\":\"3b8305f7-9867-4113-be81-ce7e4b0884be\"},\"panelIndex\":\"3b8305f7-9867-4113-be81-ce7e4b0884be\",\"embeddableConfig\":{},\"panelRefName\":\"panel_6\"},{\"version\":\"7.9.2\",\"gridData\":{\"x\":0,\"y\":28,\"w\":31,\"h\":18,\"i\":\"540af709-0e20-4d79-9f75-d84dc5f053f9\"},\"panelIndex\":\"540af709-0e20-4d79-9f75-d84dc5f053f9\",\"embeddableConfig\":{\"title\":\"Log Details\",\"vis\":{\"params\":{\"sort\":{\"columnIndex\":4,\"direction\":\"asc\"}}}},\"title\":\"Log Details\",\"panelRefName\":\"panel_7\"},{\"version\":\"7.9.2\",\"gridData\":{\"x\":31,\"y\":28,\"w\":17,\"h\":18,\"i\":\"6c7f075f-a305-4ef5-9db5-3cdf7c7dab27\"},\"panelIndex\":\"6c7f075f-a305-4ef5-9db5-3cdf7c7dab27\",\"embeddableConfig\":{\"title\":\"Top 20 Users\",\"table\":null,\"vis\":{\"colors\":{\"Count\":\"#806EB7\"},\"legendOpen\":false}},\"title\":\"Top 20 Users\",\"panelRefName\":\"panel_8\"}]","refreshInterval":{"pause":true,"value":0},"timeFrom":"now-1y","timeRestore":true,"timeTo":"now","title":"dashboard-audit","version":1},"id":"5c12d4c0-da57-11eb-935d-434cc36ade6c","migrationVersion":{"dashboard":"7.3.0"},"references":[{"id":"4739a9f0-e49a-11eb-935d-434cc36ade6c","name":"panel_0","type":"visualization"},{"id":"f8f363a0-e4a1-11eb-935d-434cc36ade6c","name":"panel_1","type":"visualization"},{"id":"1312fe10-e9e0-11eb-95fb-b3c2cfbbec5c","name":"panel_2","type":"visualization"},{"id":"65b8d6e0-4435-11eb-bf78-cffda3f3fc1c","name":"panel_3","type":"visualization"},{"id":"4d840590-7c39-11eb-832f-d9e1018299fd","name":"panel_4","type":"visualization"},{"id":"cce9bfe0-7c49-11eb-832f-d9e1018299fd","name":"panel_5","type":"visualization"},{"id":"a6fd93b0-e305-11eb-935d-434cc36ade6c","name":"panel_6","type":"visualization"},{"id":"2a997c30-33d3-11eb-bf78-cffda3f3fc1c","name":"panel_7","type":"visualization"},{"id":"f39ebde0-e560-11eb-935d-434cc36ade6c","name":"panel_8","type":"visualization"}],"type":"dashboard","updated_at":"2021-08-05T14:28:25.035Z","version":"WzUzMjEyLDVd"}
{"exportedCount":11,"missingRefCount":0,"missingReferences":[]}